Lab3/code/tb_wave.vcd
$date
	Sun May 05 19:23:59 2019
$end
$version
	Icarus Verilog
$end
$timescale
	1ps
$end
$scope module TestBench $end
$scope module CPU $end
$var wire 1 ! clk_i $end
$var wire 1 " rst_i $end
$var wire 1 # zero_o $end
$var wire 32 $ sum_2 [31:0] $end
$var wire 32 % result_o [31:0] $end
$var wire 32 & pc_Mux2 [31:0] $end
$var wire 32 ' pc_Mux1 [31:0] $end
$var wire 32 ( pc_Addro [31:0] $end
$var wire 32 ) pc_Addri [31:0] $end
$var wire 32 * pc_Addr4 [31:0] $end
$var wire 28 + jump_sh [27:0] $end
$var wire 1 , isJr $end
$var wire 32 - instr [31:0] $end
$var wire 32 . data_SH [31:0] $end
$var wire 32 / data_SE [31:0] $end
$var wire 5 0 data_M1 [4:0] $end
$var wire 32 1 data_ALU [31:0] $end
$var wire 1 2 RegWrite $end
$var wire 1 3 RegJal_o $end
$var wire 1 4 RegDst_o $end
$var wire 32 5 RTdata_o [31:0] $end
$var wire 32 6 RSdata_o [31:0] $end
$var wire 1 7 MemtoReg_o $end
$var wire 32 8 Memdata_o [31:0] $end
$var wire 1 9 MemWrite_o $end
$var wire 1 : MemRead_o $end
$var wire 1 ; Jump_o $end
$var wire 32 < Final_result2 [31:0] $end
$var wire 32 = Final_result1 [31:0] $end
$var wire 1 > Branch_o $end
$var wire 4 ? ALU_op [3:0] $end
$var wire 1 @ ALUSrc_o $end
$var wire 4 A ALUCtrl_o [3:0] $end
$scope module AC $end
$var wire 6 B funct_i [5:0] $end
$var wire 4 C ALUOp_i [3:0] $end
$var reg 4 D ALUCtrl_o [3:0] $end
$var reg 1 , isJr $end
$upscope $end
$scope module ALU $end
$var wire 4 E ctrl_i [3:0] $end
$var wire 5 F sham [4:0] $end
$var wire 1 # zero_o $end
$var wire 32 G src2_i [31:0] $end
$var wire 32 H src1_i [31:0] $end
$var reg 32 I result_o [31:0] $end
$upscope $end
$scope module Adder1 $end
$var wire 32 J src2_i [31:0] $end
$var wire 32 K sum_o [31:0] $end
$var wire 32 L src1_i [31:0] $end
$upscope $end
$scope module Adder2 $end
$var wire 32 M src1_i [31:0] $end
$var wire 32 N sum_o [31:0] $end
$var wire 32 O src2_i [31:0] $end
$upscope $end
$scope module Data_Memory $end
$var wire 32 P addr_i [31:0] $end
$var wire 1 ! clk_i $end
$var wire 32 Q data_i [31:0] $end
$var wire 1 9 MemWrite_i $end
$var wire 1 : MemRead_i $end
$var reg 32 R data_o [31:0] $end
$var integer 32 S i [31:0] $end
$upscope $end
$scope module Decoder $end
$var wire 6 T funct_i [5:0] $end
$var wire 6 U instr_op_i [5:0] $end
$var reg 1 @ ALUSrc_o $end
$var reg 4 V ALU_op_o [3:0] $end
$var reg 1 > Branch_o $end
$var reg 1 ; Jump_o $end
$var reg 1 : MemRead_o $end
$var reg 1 9 MemWrite_o $end
$var reg 1 7 MemtoReg_o $end
$var reg 1 4 RegDst_o $end
$var reg 1 3 RegJal_o $end
$var reg 1 2 RegWrite_o $end
$upscope $end
$scope module IM $end
$var wire 32 W instr_o [31:0] $end
$var wire 32 X addr_i [31:0] $end
$var integer 32 Y i [31:0] $end
$upscope $end
$scope module M1 $end
$var wire 32 Z data0_i [31:0] $end
$var wire 32 [ data1_i [31:0] $end
$var wire 1 7 select_i $end
$var reg 32 \ data_o [31:0] $end
$upscope $end
$scope module M2 $end
$var wire 32 ] data0_i [31:0] $end
$var wire 32 ^ data1_i [31:0] $end
$var wire 1 3 select_i $end
$var reg 32 _ data_o [31:0] $end
$upscope $end
$scope module MUX_isJr $end
$var wire 1 , select_i $end
$var wire 32 ` data1_i [31:0] $end
$var wire 32 a data0_i [31:0] $end
$var reg 32 b data_o [31:0] $end
$upscope $end
$scope module Mux_ALUSrc $end
$var wire 1 @ select_i $end
$var wire 32 c data1_i [31:0] $end
$var wire 32 d data0_i [31:0] $end
$var reg 32 e data_o [31:0] $end
$upscope $end
$scope module Mux_Jump $end
$var wire 32 f data1_i [31:0] $end
$var wire 1 ; select_i $end
$var wire 32 g data0_i [31:0] $end
$var reg 32 h data_o [31:0] $end
$upscope $end
$scope module Mux_PC_Source $end
$var wire 32 i data0_i [31:0] $end
$var wire 32 j data1_i [31:0] $end
$var wire 1 k select_i $end
$var reg 32 l data_o [31:0] $end
$upscope $end
$scope module Mux_Write_Reg $end
$var wire 5 m data0_i [4:0] $end
$var wire 5 n data1_i [4:0] $end
$var wire 1 4 select_i $end
$var reg 5 o data_o [4:0] $end
$upscope $end
$scope module PC $end
$var wire 1 ! clk_i $end
$var wire 32 p pc_in_i [31:0] $end
$var wire 1 " rst_i $end
$var reg 32 q pc_out_o [31:0] $end
$upscope $end
$scope module RF $end
$var wire 5 r RDaddr_i [4:0] $end
$var wire 32 s RDdata_i [31:0] $end
$var wire 5 t RSaddr_i [4:0] $end
$var wire 32 u RSdata_o [31:0] $end
$var wire 5 v RTaddr_i [4:0] $end
$var wire 32 w RTdata_o [31:0] $end
$var wire 1 3 RegJal_o $end
$var wire 1 2 RegWrite_i $end
$var wire 1 ! clk_i $end
$var wire 32 x pc_Addro [31:0] $end
$var wire 1 " rst_i $end
$upscope $end
$scope module SE $end
$var wire 16 y data_i [15:0] $end
$var reg 32 z data_o [31:0] $end
$upscope $end
$scope module Shifter $end
$var wire 32 { data_i [31:0] $end
$var reg 32 | data_o [31:0] $end
$upscope $end
$upscope $end
$upscope $end
$enddefinitions $end
#0
$dumpvars
bx |
bx {
bx z
bx y
bx x
bx w
bx v
bx u
bx t
bx s
bx r
bx q
bx p
bx o
bx n
bx m
bx l
xk
bx j
bx i
bx h
bx g
bx00 f
bx e
bx d
bx c
bx b
bx a
bx `
bx _
bx ^
bx ]
bx \
bx [
bx Z
b100000 Y
bx X
bx W
bx V
bx U
bx T
b10000000 S
bx R
bx Q
bx P
bx O
bx N
bx M
bx L
bx K
b100 J
bx I
bx H
bx G
bx F
bx E
bx D
bx C
bx B
bx A
x@
bx ?
x>
bx =
bx <
x;
x:
x9
bx 8
x7
bx 6
bx 5
x4
x3
x2
bx 1
bx 0
bx /
bx .
bx -
x,
bx00 +
bx *
bx )
bx (
bx '
bx &
bx %
bx $
x#
0"
0!
$end
#25000
b0 <
b0 _
b0 s
b0 =
b0 \
b0 ]
b10 A
b10 D
b10 E
0#
b0 %
b0 I
b0 P
b0 Z
b100 )
b100 b
b100 p
b100 &
b100 a
b100 h
b100 '
b100 g
b100 l
b10000000010001000 $
b10000000010001000 N
b10000000010001000 j
b10000000010000100 .
b10000000010000100 O
b10000000010000100 |
0k
b0 1
b0 G
b0 e
b100000000100001 /
b100000000100001 c
b100000000100001 z
b100000000100001 {
0,
b10 ?
b10 C
b10 V
14
03
0;
0:
09
07
0>
12
0@
b1000 0
b1000 o
b1000 r
b10000000010000100 +
b0 F
b100000000100001 y
b100001 B
b100001 T
b0 U
b0 5
b0 Q
b0 d
b0 w
b0 v
b0 6
b0 H
b0 `
b0 u
b0 t
b1000 n
b0 m
b10000000010000100 f
b100000000100001 -
b100000000100001 W
b100 *
b100 K
b100 M
b100 ^
b100 i
b100 x
b0 (
b0 L
b0 X
b0 q
1!
#50000
0!
1"
#75000
b1010 <
b1010 _
b1010 s
b1010 =
b1010 \
b1010 ]
1#
b1010 %
b1010 I
b1010 P
b1010 Z
b101000 .
b101000 O
b101000 |
b1010 1
b1010 G
b1010 e
b1000 )
b1000 b
b1000 p
b1010 /
b1010 c
b1010 z
b1010 {
b11 ?
b11 C
b11 V
04
1@
b1001 0
b1001 o
b1001 r
b1001000000000000101000 f
b1001000000000000101000 +
b1000 &
b1000 a
b1000 h
b1010 y
b1010 B
b1010 T
b1000 U
b1001 v
b0 n
b1001 m
b1000 '
b1000 g
b1000 l
b100000000010010000000000001010 -
b100000000010010000000000001010 W
b110000 $
b110000 N
b110000 j
b1000 *
b1000 K
b1000 M
b1000 ^
b1000 i
b1000 x
b100 (
b100 L
b100 X
b100 q
1!
#100000
0!
#125000
b1101 <
b1101 _
b1101 s
b1101 =
b1101 \
b1101 ]
b1101 %
b1101 I
b1101 P
b1101 Z
b1101 1
b1101 G
b1101 e
b110100 .
b110100 O
b110100 |
b1100 )
b1100 b
b1100 p
b1101 /
b1101 c
b1101 z
b1101 {
b1010 0
b1010 o
b1010 r
b1010000000000000110100 f
b1010000000000000110100 +
b1100 &
b1100 a
b1100 h
b1101 y
b1101 B
b1101 T
b1010 v
b1010 m
b1100 '
b1100 g
b1100 l
b100000000010100000000000001101 -
b100000000010100000000000001101 W
b1000000 $
b1000000 N
b1000000 j
b1100 *
b1100 K
b1100 M
b1100 ^
b1100 i
b1100 x
b1000 (
b1000 L
b1000 X
b1000 q
b0 5
b0 Q
b0 d
b0 w
1!
#150000
0!
#175000
b1100100 <
b1100100 _
b1100100 s
b1100100 =
b1100100 \
b1100100 ]
b1100 A
b1100 D
b1100 E
b1100100 %
b1100100 I
b1100100 P
b1100100 Z
b10110000001100000 .
b10110000001100000 O
b10110000001100000 |
b1010 1
b1010 G
b1010 e
b101100000011000 /
b101100000011000 c
b101100000011000 z
b101100000011000 {
b10 ?
b10 C
b10 V
14
0@
b10000 )
b10000 b
b10000 p
b1011 0
b1011 o
b1011 r
b100101001010110000001100000 f
b100101001010110000001100000 +
b10000 &
b10000 a
b10000 h
b101100000011000 y
b11000 B
b11000 T
b0 U
b1001 v
b1010 6
b1010 H
b1010 `
b1010 u
b1001 t
b1011 n
b1001 m
b10000 '
b10000 g
b10000 l
b1001010010101100000011000 -
b1001010010101100000011000 W
b10110000001110000 $
b10110000001110000 N
b10110000001110000 j
b10000 *
b10000 K
b10000 M
b10000 ^
b10000 i
b10000 x
b1100 (
b1100 L
b1100 X
b1100 q
b1010 5
b1010 Q
b1010 d
b1010 w
1!
#200000
0!
#225000
bx <
bx _
bx s
bx =
bx \
bx ]
x#
bx %
bx I
bx P
bx Z
b1011100 .
b1011100 O
b1011100 |
b10111 /
b10111 c
b10111 z
b10111 {
b0x ?
b0x C
b0x V
x4
1;
02
x@
b0x0xxx 1
b0x0xxx G
b0x0xxx e
b1011100 )
b1011100 b
b1011100 p
b0 0
b0 o
b0 r
b1011100 f
b1011100 +
b1011100 &
b1011100 a
b1011100 h
b10111 y
b10111 B
b10111 T
b10 U
b0 5
b0 Q
b0 d
b0 w
b0 v
b0 6
b0 H
b0 `
b0 u
b0 t
b0 n
b0 m
b10100 '
b10100 g
b10100 l
b1000000000000000000000010111 -
b1000000000000000000000010111 W
b1110000 $
b1110000 N
b1110000 j
b10100 *
b10100 K
b10100 M
b10100 ^
b10100 i
b10100 x
b10000 (
b10000 L
b10000 X
b10000 q
1!
#250000
0!
#275000
b11 <
b11 _
b11 s
b11 =
b11 \
b11 ]
1#
b11 %
b11 I
b11 P
b11 Z
b110 A
b110 D
b110 E
b1100000 )
b1100000 b
b1100000 p
b10100000010001100 .
b10100000010001100 O
b10100000010001100 |
b1100000 &
b1100000 a
b1100000 h
b101000000100011 /
b101000000100011 c
b101000000100011 z
b101000000100011 {
b10 ?
b10 C
b10 V
14
0;
12
0@
b1010 1
b1010 G
b1010 e
b1010 0
b1010 o
b1010 r
b101001001010100000010001100 f
b101001001010100000010001100 +
b101000000100011 y
b100011 B
b100011 T
b0 U
b1010 5
b1010 Q
b1010 d
b1010 w
b1001 v
b1101 6
b1101 H
b1101 `
b1101 u
b1010 t
b1010 n
b1001 m
b1100000 '
b1100000 g
b1100000 l
b1010010010101000000100011 -
b1010010010101000000100011 W
b10100000011101100 $
b10100000011101100 N
b10100000011101100 j
b1100000 *
b1100000 K
b1100000 M
b1100000 ^
b1100000 i
b1100000 x
b1011100 (
b1011100 L
b1011100 X
b1011100 q
1!
#300000
0!
#325000
b1100111 <
b1100111 _
b1100111 s
b1100111 =
b1100111 \
b1100111 ]
b10 A
b10 D
b10 E
b1100111 %
b1100111 I
b1100111 P
b1100111 Z
b11000000010000100 .
b11000000010000100 O
b11000000010000100 |
b110000000100001 /
b110000000100001 c
b110000000100001 z
b110000000100001 {
b11 1
b11 G
b11 e
b1100100 )
b1100100 b
b1100100 p
b1100 0
b1100 o
b1100 r
b101101010011000000010000100 f
b101101010011000000010000100 +
b1100100 &
b1100100 a
b1100100 h
b110000000100001 y
b100001 B
b100001 T
b11 5
b11 Q
b11 d
b11 w
b1010 v
b1011 t
b1100 n
b1010 m
b1100100 '
b1100100 g
b1100100 l
b1011010100110000000100001 -
b1011010100110000000100001 W
b11000000011101000 $
b11000000011101000 N
b11000000011101000 j
b1100100 *
b1100100 K
b1100100 M
b1100100 ^
b1100100 i
b1100100 x
b1100000 (
b1100000 L
b1100000 X
b1100000 q
b1100100 6
b1100100 H
b1100100 `
b1100100 u
1!
#350000
0!
#375000
0#
b0 <
b0 _
b0 s
b0 =
b0 \
b0 ]
b1000 A
b1000 D
b1000 E
b0 %
b0 I
b0 P
b0 Z
b11111111111111111111111111111000 .
b11111111111111111111111111111000 O
b11111111111111111111111111111000 |
0k
b11111111111111111111111111111110 /
b11111111111111111111111111111110 c
b11111111111111111111111111111110 z
b11111111111111111111111111111110 {
b1010 ?
b1010 C
b1010 V
x4
1>
02
b1101000 )
b1101000 b
b1101000 p
bx1x1x 0
bx1x1x o
bx1x1x r
b100101010111111111111111000 f
b100101010111111111111111000 +
b1101000 &
b1101000 a
b1101000 h
b11111 F
b1111111111111110 y
b111110 B
b111110 T
b100 U
b1010 6
b1010 H
b1010 `
b1010 u
b1001 t
b11111 n
b1101000 '
b1101000 g
b1101000 l
b10001001010101111111111111110 -
b10001001010101111111111111110 W
b1100000 $
b1100000 N
b1100000 j
b1101000 *
b1101000 K
b1101000 M
b1101000 ^
b1101000 i
b1101000 x
b1100100 (
b1100100 L
b1100100 X
b1100100 q
1!
#400000
0!
#425000
b0x <
b0x _
b0x s
b0x =
b0x \
b0x ]
x#
b0x %
b0x I
b0x P
b0x Z
b10100 .
b10100 O
b10100 |
b101 /
b101 c
b101 z
b101 {
b0x ?
b0x C
b0x V
1;
0>
x@
b0x0x 1
b0x0x G
b0x0x e
b10100 )
b10100 b
b10100 p
b0 0
b0 o
b0 r
b10100 f
b10100 +
b10100 &
b10100 a
b10100 h
b0 F
b101 y
b101 B
b101 T
b10 U
b0 5
b0 Q
b0 d
b0 w
b0 v
b0 6
b0 H
b0 `
b0 u
b0 t
b0 n
b0 m
b1101100 '
b1101100 g
b1101100 l
b1000000000000000000000000101 -
b1000000000000000000000000101 W
b10000000 $
b10000000 N
b10000000 j
b1101100 *
b1101100 K
b1101100 M
b1101100 ^
b1101100 i
b1101100 x
b1101000 (
b1101000 L
b1101000 X
b1101000 q
1!
#450000
0!
#475000
b1010 <
b1010 _
b1010 s
b1110000000000000000 8
b1110000000000000000 R
b1110000000000000000 [
b1010 =
b1010 \
b1010 ]
1#
b1010 %
b1010 I
b1010 P
b1010 Z
b10 A
b10 D
b10 E
b11000 )
b11000 b
b11000 p
b101000 .
b101000 O
b101000 |
b1010 1
b1010 G
b1010 e
b11000 &
b11000 a
b11000 h
b1010 /
b1010 c
b1010 z
b1010 {
b0 ?
b0 C
b0 V
04
0;
1:
12
1@
b1000 0
b1000 o
b1000 r
b1000000000000000101000 f
b1000000000000000101000 +
b1010 y
b1010 B
b1010 T
b1111 U
b1000 v
b1000 m
b11000 '
b11000 g
b11000 l
b111100000010000000000000001010 -
b111100000010000000000000001010 W
b1000000 $
b1000000 N
b1000000 j
b11000 *
b11000 K
b11000 M
b11000 ^
b11000 i
b11000 x
b10100 (
b10100 L
b10100 X
b10100 q
1!
#500000
0!
#525000
b100 <
b100 _
b100 s
b101 8
b101 R
b101 [
b100 =
b100 \
b100 ]
b100 %
b100 I
b100 P
b100 Z
b100 1
b100 G
b100 e
b10000 .
b10000 O
b10000 |
b11100 )
b11100 b
b11100 p
b100 /
b100 c
b100 z
b100 {
b1001 0
b1001 o
b1001 r
b1001000000000000010000 f
b1001000000000000010000 +
b11100 &
b11100 a
b11100 h
b100 y
b100 B
b100 T
b1001 v
b1001 m
b11100 '
b11100 g
b11100 l
b111100000010010000000000000100 -
b111100000010010000000000000100 W
b101100 $
b101100 N
b101100 j
b11100 *
b11100 K
b11100 M
b11100 ^
b11100 i
b11100 x
b11000 (
b11000 L
b11000 X
b11000 q
b1010 5
b1010 Q
b1010 d
b1010 w
1!
#550000
0!
#575000
b101000 <
b101000 _
b101000 s
b101000 =
b101000 \
b101000 ]
b1100 A
b1100 D
b1100 E
b101000 %
b101000 I
b101000 P
b101000 Z
b11000000001100000 .
b11000000001100000 O
b11000000001100000 |
b1100 0
b1100 o
b1100 r
b110000000011000 /
b110000000011000 c
b110000000011000 z
b110000000011000 {
b10 ?
b10 C
b10 V
14
0:
0@
b100000 )
b100000 b
b100000 p
b100001001011000000001100000 f
b100001001011000000001100000 +
b100000 &
b100000 a
b100000 h
b110000000011000 y
b11000 B
b11000 T
b0 U
b1010 6
b1010 H
b1010 `
b1010 u
b1000 t
b1100 n
b100000 '
b100000 g
b100000 l
b1000010010110000000011000 -
b1000010010110000000011000 W
b11000000010000000 $
b11000000010000000 N
b11000000010000000 j
b100000 *
b100000 K
b100000 M
b100000 ^
b100000 i
b100000 x
b11100 (
b11100 L
b11100 X
b11100 q
b100 5
b100 Q
b100 d
b100 w
1!
#600000
0!
#625000
b1000 <
b1000 _
b1000 s
b1000 =
b1000 \
b1000 ]
b10 A
b10 D
b10 E
1#
b1000 %
b1000 I
b1000 P
b1000 Z
b100000 .
b100000 O
b100000 |
b1000 /
b1000 c
b1000 z
b1000 {
b11 ?
b11 C
b11 V
04
1@
b1000 1
b1000 G
b1000 e
b100100 )
b100100 b
b100100 p
b1110 0
b1110 o
b1110 r
b1110000000000000100000 f
b1110000000000000100000 +
b100100 &
b100100 a
b100100 h
b1000 y
b1000 B
b1000 T
b1000 U
b0 5
b0 Q
b0 d
b0 w
b1110 v
b0 6
b0 H
b0 `
b0 u
b0 t
b0 n
b1110 m
b100100 '
b100100 g
b100100 l
b100000000011100000000000001000 -
b100000000011100000000000001000 W
b1000100 $
b1000100 N
b1000100 j
b100100 *
b100100 K
b100100 M
b100100 ^
b100100 i
b100100 x
b100000 (
b100000 L
b100000 X
b100000 q
1!
#650000
0!
#675000
b100000 <
b100000 _
b100000 s
b100000 =
b100000 \
b100000 ]
b110 A
b110 D
b110 E
b100000 %
b100000 I
b100000 P
b100000 Z
b10000000010001100 .
b10000000010001100 O
b10000000010001100 |
b1000 0
b1000 o
b1000 r
b100000000100011 /
b100000000100011 c
b100000000100011 z
b100000000100011 {
b10 ?
b10 C
b10 V
14
0@
b101000 )
b101000 b
b101000 p
b110001110010000000010001100 f
b110001110010000000010001100 +
b101000 &
b101000 a
b101000 h
b100000000100011 y
b100011 B
b100011 T
b0 U
b101000 6
b101000 H
b101000 `
b101000 u
b1100 t
b1000 n
b101000 '
b101000 g
b101000 l
b1100011100100000000100011 -
b1100011100100000000100011 W
b10000000010110100 $
b10000000010110100 N
b10000000010110100 j
b101000 *
b101000 K
b101000 M
b101000 ^
b101000 i
b101000 x
b100100 (
b100100 L
b100100 X
b100100 q
b1000 5
b1000 Q
b1000 d
b1000 w
1!
#700000
0!
#725000
b0 <
b0 _
b0 s
b0 =
b0 \
b0 ]
0#
b10 A
b10 D
b10 E
b0 %
b0 I
b0 P
b0 Z
b0 .
b0 O
b0 |
b100 8
b100 R
b100 [
b0 /
b0 c
b0 z
b0 {
b0 ?
b0 C
b0 V
04
1:
1@
b0 1
b0 G
b0 e
b101100 )
b101100 b
b101100 p
b1001 0
b1001 o
b1001 r
b1001000000000000000000 f
b1001000000000000000000 +
b101100 &
b101100 a
b101100 h
b0 y
b0 B
b0 T
b1111 U
b100 5
b100 Q
b100 d
b100 w
b1001 v
b0 6
b0 H
b0 `
b0 u
b0 t
b0 n
b1001 m
b101100 '
b101100 g
b101100 l
b111100000010010000000000000000 -
b111100000010010000000000000000 W
b101100 $
b101100 N
b101100 j
b101100 *
b101100 K
b101100 M
b101100 ^
b101100 i
b101100 x
b101000 (
b101000 L
b101000 X
b101000 q
1!
#750000
0!
#775000
b11 8
b11 R
b11 [
1#
b100100 %
b100100 I
b100100 P
b100100 Z
b11 <
b11 _
b11 s
b100 1
b100 G
b100 e
b10000 .
b10000 O
b10000 |
b11 =
b11 \
b11 ]
b100 /
b100 c
b100 z
b100 {
17
b110000 )
b110000 b
b110000 p
b1010 0
b1010 o
b1010 r
b100001010000000000000010000 f
b100001010000000000000010000 +
b110000 &
b110000 a
b110000 h
b100 y
b100 B
b100 T
b100011 U
b1010 v
b100000 6
b100000 H
b100000 `
b100000 u
b1000 t
b1010 m
b110000 '
b110000 g
b110000 l
b10001101000010100000000000000100 -
b10001101000010100000000000000100 W
b1000000 $
b1000000 N
b1000000 j
b110000 *
b110000 K
b110000 M
b110000 ^
b110000 i
b110000 x
b101100 (
b101100 L
b101100 X
b101100 q
b11 5
b11 Q
b11 d
b11 w
1!
#800000
0!
#825000
b1 <
b1 _
b1 s
b1 =
b1 \
b1 ]
b1 8
b1 R
b1 [
b100000 %
b100000 I
b100000 P
b100000 Z
b0 1
b0 G
b0 e
b0 .
b0 O
b0 |
b110100 )
b110100 b
b110100 p
b0 /
b0 c
b0 z
b0 {
b1011 0
b1011 o
b1011 r
b100001011000000000000000000 f
b100001011000000000000000000 +
b110100 &
b110100 a
b110100 h
b0 y
b0 B
b0 T
b1100100 5
b1100100 Q
b1100100 d
b1100100 w
b1011 v
b1011 m
b110100 '
b110100 g
b110100 l
b10001101000010110000000000000000 -
b10001101000010110000000000000000 W
b110100 $
b110100 N
b110100 j
b110100 *
b110100 K
b110100 M
b110100 ^
b110100 i
b110100 x
b110000 (
b110000 L
b110000 X
b110000 q
1!
#850000
0!
#875000
0#
b100 A
b100 D
b100 E
b0 %
b0 I
b0 P
b0 Z
b0 <
b0 _
b0 s
b1100 .
b1100 O
b1100 |
b0x0xx 0
b0x0xx o
b0x0xx r
b0 =
b0 \
b0 ]
0k
b1 1
b1 G
b1 e
b11 /
b11 c
b11 z
b11 {
b1000 ?
b1000 C
b1000 V
x4
0:
07
1>
02
0@
b111000 )
b111000 b
b111000 p
b101001011000000000000001100 f
b101001011000000000000001100 +
b111000 &
b111000 a
b111000 h
b11 y
b11 B
b11 T
b110 U
b11 6
b11 H
b11 `
b11 u
b1010 t
b111000 '
b111000 g
b111000 l
b11001010010110000000000000011 -
b11001010010110000000000000011 W
b1000100 $
b1000100 N
b1000100 j
b111000 *
b111000 K
b111000 M
b111000 ^
b111000 i
b111000 x
b110100 (
b110100 L
b110100 X
b110100 q
b1 5
b1 Q
b1 d
b1 w
1!
#900000
0!
#925000
b100000 <
b100000 _
b100000 s
b100000 =
b100000 \
b100000 ]
1#
b100000 %
b100000 I
b100000 P
b100000 Z
b10 A
b10 D
b10 E
b0 .
b0 O
b0 |
b0 /
b0 c
b0 z
b0 {
b1 ?
b1 C
b1 V
19
0>
1@
b0 1
b0 G
b0 e
b111100 )
b111100 b
b111100 p
b0x0x0 0
b0x0x0 o
b0x0x0 r
b100001010000000000000000000 f
b100001010000000000000000000 +
b111100 &
b111100 a
b111100 h
b0 y
b0 B
b0 T
b101011 U
b11 5
b11 Q
b11 d
b11 w
b1010 v
b100000 6
b100000 H
b100000 `
b100000 u
b1000 t
b1010 m
b111100 '
b111100 g
b111100 l
b10101101000010100000000000000000 -
b10101101000010100000000000000000 W
b111100 $
b111100 N
b111100 j
b111100 *
b111100 K
b111100 M
b111100 ^
b111100 i
b111100 x
b111000 (
b111000 L
b111000 X
b111000 q
1!
#950000
0!
#975000
b100100 <
b100100 _
b100100 s
b100100 =
b100100 \
b100100 ]
b100100 %
b100100 I
b100100 P
b100100 Z
b100 1
b100 G
b100 e
b10000 .
b10000 O
b10000 |
b1000000 )
b1000000 b
b1000000 p
b100 /
b100 c
b100 z
b100 {
b0x0xx 0
b0x0xx o
b0x0xx r
b100001011000000000000010000 f
b100001011000000000000010000 +
b1000000 &
b1000000 a
b1000000 h
b100 y
b100 B
b100 T
b1 5
b1 Q
b1 d
b1 w
b1011 v
b1011 m
b1000000 '
b1000000 g
b1000000 l
b10101101000010110000000000000100 -
b10101101000010110000000000000100 W
b1010000 $
b1010000 N
b1010000 j
b1000000 *
b1000000 K
b1000000 M
b1000000 ^
b1000000 i
b1000000 x
b111100 (
b111100 L
b111100 X
b111100 q
1!
#1000000
0!
#1025000
b1 <
b1 _
b1 s
b101000000000000000000000000 8
b101000000000000000000000000 R
b101000000000000000000000000 [
b1 =
b1 \
b1 ]
b1 %
b1 I
b1 P
b1 Z
b1 1
b1 G
b1 e
b100 .
b100 O
b100 |
b1 /
b1 c
b1 z
b1 {
b0 ?
b0 C
b0 V
04
1:
09
12
b1000100 )
b1000100 b
b1000100 p
b1001 0
b1001 o
b1001 r
b1001000000000000000100 f
b1001000000000000000100 +
b1000100 &
b1000100 a
b1000100 h
b1 y
b1 B
b1 T
b1111 U
b0 5
b0 Q
b0 d
b0 w
b1001 v
b0 6
b0 H
b0 `
b0 u
b0 t
b1001 m
b1000100 '
b1000100 g
b1000100 l
b111100000010010000000000000001 -
b111100000010010000000000000001 W
b1001000 $
b1001000 N
b1001000 j
b1000100 *
b1000100 K
b1000100 M
b1000100 ^
b1000100 i
b1000100 x
b1000000 (
b1000000 L
b1000000 X
b1000000 q
1!
#1050000
0!
#1075000
b100 <
b100 _
b100 s
b100 =
b100 \
b100 ]
b100 %
b100 I
b100 P
b100 Z
b100 1
b100 G
b100 e
b10000 .
b10000 O
b10000 |
b1001000 )
b1001000 b
b1001000 p
b100 /
b100 c
b100 z
b100 {
b11 ?
b11 C
b11 V
0:
b1101 0
b1101 o
b1101 r
b1101000000000000010000 f
b1101000000000000010000 +
b1001000 &
b1001000 a
b1001000 h
b100 y
b100 B
b100 T
b1000 U
b1101 v
b1101 m
b1001000 '
b1001000 g
b1001000 l
b100000000011010000000000000100 -
b100000000011010000000000000100 W
b1011000 $
b1011000 N
b1011000 j
b1001000 *
b1001000 K
b1001000 M
b1001000 ^
b1001000 i
b1001000 x
b1000100 (
b1000100 L
b1000100 X
b1000100 q
b0 5
b0 Q
b0 d
b0 w
1!
#1100000
0!
#1125000
b11100 <
b11100 _
b11100 s
b11100 =
b11100 \
b11100 ]
b110 A
b110 D
b110 E
b11100 %
b11100 I
b11100 P
b11100 Z
b10000000010001100 .
b10000000010001100 O
b10000000010001100 |
b1000 0
b1000 o
b1000 r
b100000000100011 /
b100000000100011 c
b100000000100011 z
b100000000100011 {
b10 ?
b10 C
b10 V
14
0@
b1001100 )
b1001100 b
b1001100 p
b100001101010000000010001100 f
b100001101010000000010001100 +
b1001100 &
b1001100 a
b1001100 h
b100000000100011 y
b100011 B
b100011 T
b0 U
b100000 6
b100000 H
b100000 `
b100000 u
b1000 t
b1000 n
b1001100 '
b1001100 g
b1001100 l
b1000011010100000000100011 -
b1000011010100000000100011 W
b10000000011011000 $
b10000000011011000 N
b10000000011011000 j
b1001100 *
b1001100 K
b1001100 M
b1001100 ^
b1001100 i
b1001100 x
b1001000 (
b1001000 L
b1001000 X
b1001000 q
b100 5
b100 Q
b100 d
b100 w
1!
#1150000
0!
#1175000
b0 <
b0 _
b0 s
b0 =
b0 \
b0 ]
0#
b111 A
b111 D
b111 E
b0 %
b0 I
b0 P
b0 Z
b100 .
b100 O
b100 |
0k
b1010000 )
b1010000 b
b1010000 p
b1 /
b1 c
b1 z
b1 {
b1001 ?
b1001 C
b1001 V
x4
1>
02
b0 1
b0 G
b0 e
b0 0
b0 o
b0 r
b100000000000000000000000100 f
b100000000000000000000000100 +
b1010000 &
b1010000 a
b1010000 h
b1 y
b1 B
b1 T
b1 U
b0 5
b0 Q
b0 d
b0 w
b0 v
b0 n
b0 m
b1010000 '
b1010000 g
b1010000 l
b101000000000000000000000001 -
b101000000000000000000000001 W
b1010100 $
b1010100 N
b1010100 j
b1010000 *
b1010000 K
b1010000 M
b1010000 ^
b1010000 i
b1010000 x
b1001100 (
b1001100 L
b1001100 X
b1001100 q
b11100 6
b11100 H
b11100 `
b11100 u
1!
#1200000
0!
#1225000
b0x <
b0x _
b0x s
b0x =
b0x \
b0x ]
x#
b0x %
b0x I
b0x P
b0x Z
b101100 .
b101100 O
b101100 |
b0x0xx 1
b0x0xx G
b0x0xx e
b1011 /
b1011 c
b1011 z
b1011 {
b0x ?
b0x C
b0x V
1;
0>
x@
b101100 )
b101100 b
b101100 p
b101100 f
b101100 +
b101100 &
b101100 a
b101100 h
b1011 y
b1011 B
b1011 T
b10 U
b0 6
b0 H
b0 `
b0 u
b0 t
b1010100 '
b1010100 g
b1010100 l
b1000000000000000000000001011 -
b1000000000000000000000001011 W
b10000000 $
b10000000 N
b10000000 j
b1010100 *
b1010100 K
b1010100 M
b1010100 ^
b1010100 i
b1010100 x
b1010000 (
b1010000 L
b1010000 X
b1010000 q
1!
#1250000
0!
