Lab3/code/tb_wave.vcd
$date
	Mon May 20 21:58:36 2019
$end
$version
	Icarus Verilog
$end
$timescale
	1ps
$end
$scope module TestBench $end
$scope module CPU $end
$var wire 1 ! clk_i $end
$var wire 1 " rst_i $end
$var wire 1 # zero_o $end
$var wire 32 $ sum_2 [31:0] $end
$var wire 32 % result_o [31:0] $end
$var wire 32 & pc_Mux2 [31:0] $end
$var wire 32 ' pc_Mux1 [31:0] $end
$var wire 32 ( pc_Addro [31:0] $end
$var wire 32 ) pc_Addri [31:0] $end
$var wire 32 * pc_Addr4 [31:0] $end
$var wire 28 + jump_sh [27:0] $end
$var wire 1 , isJr $end
$var wire 32 - instr [31:0] $end
$var wire 32 . data_SH [31:0] $end
$var wire 32 / data_SE [31:0] $end
$var wire 5 0 data_M2 [4:0] $end
$var wire 5 1 data_M1 [4:0] $end
$var wire 32 2 data_ALU [31:0] $end
$var wire 1 3 RegWrite $end
$var wire 1 4 RegJal_o $end
$var wire 1 5 RegDst_o $end
$var wire 32 6 RTdata_o [31:0] $end
$var wire 32 7 RSdata_o [31:0] $end
$var wire 1 8 MemtoReg_o $end
$var wire 32 9 Memdata_o [31:0] $end
$var wire 1 : MemWrite_o $end
$var wire 1 ; MemRead_o $end
$var wire 1 < Jump_o $end
$var wire 32 = Final_result2 [31:0] $end
$var wire 32 > Final_result1 [31:0] $end
$var wire 1 ? Branch_o $end
$var wire 4 @ ALU_op [3:0] $end
$var wire 1 A ALUSrc_o $end
$var wire 4 B ALUCtrl_o [3:0] $end
$scope module AC $end
$var wire 6 C funct_i [5:0] $end
$var wire 4 D ALUOp_i [3:0] $end
$var reg 4 E ALUCtrl_o [3:0] $end
$upscope $end
$scope module ALU $end
$var wire 4 F ctrl_i [3:0] $end
$var wire 5 G sham [4:0] $end
$var wire 1 # zero_o $end
$var wire 32 H src2_i [31:0] $end
$var wire 32 I src1_i [31:0] $end
$var reg 32 J result_o [31:0] $end
$upscope $end
$scope module Adder1 $end
$var wire 32 K src2_i [31:0] $end
$var wire 32 L sum_o [31:0] $end
$var wire 32 M src1_i [31:0] $end
$upscope $end
$scope module Adder2 $end
$var wire 32 N src1_i [31:0] $end
$var wire 32 O sum_o [31:0] $end
$var wire 32 P src2_i [31:0] $end
$upscope $end
$scope module Data_Memory $end
$var wire 32 Q addr_i [31:0] $end
$var wire 1 ! clk_i $end
$var wire 32 R data_i [31:0] $end
$var wire 1 : MemWrite_i $end
$var wire 1 ; MemRead_i $end
$var reg 32 S data_o [31:0] $end
$var integer 32 T i [31:0] $end
$upscope $end
$scope module Decoder $end
$var wire 6 U funct_i [5:0] $end
$var wire 6 V instr_op_i [5:0] $end
$var reg 1 A ALUSrc_o $end
$var reg 4 W ALU_op_o [3:0] $end
$var reg 1 ? Branch_o $end
$var reg 1 < Jump_o $end
$var reg 1 ; MemRead_o $end
$var reg 1 : MemWrite_o $end
$var reg 1 8 MemtoReg_o $end
$var reg 1 5 RegDst_o $end
$var reg 1 4 RegJal_o $end
$var reg 1 3 RegWrite_o $end
$var reg 1 , isJr $end
$upscope $end
$scope module IM $end
$var wire 32 X instr_o [31:0] $end
$var wire 32 Y addr_i [31:0] $end
$var integer 32 Z i [31:0] $end
$upscope $end
$scope module M1 $end
$var wire 32 [ data0_i [31:0] $end
$var wire 32 \ data1_i [31:0] $end
$var wire 1 8 select_i $end
$var reg 32 ] data_o [31:0] $end
$upscope $end
$scope module M2 $end
$var wire 32 ^ data0_i [31:0] $end
$var wire 32 _ data1_i [31:0] $end
$var wire 1 4 select_i $end
$var reg 32 ` data_o [31:0] $end
$upscope $end
$scope module MUX_isJr $end
$var wire 1 < select_i $end
$var wire 32 a data1_i [31:0] $end
$var wire 32 b data0_i [31:0] $end
$var reg 32 c data_o [31:0] $end
$upscope $end
$scope module Mux_ALUSrc $end
$var wire 1 A select_i $end
$var wire 32 d data1_i [31:0] $end
$var wire 32 e data0_i [31:0] $end
$var reg 32 f data_o [31:0] $end
$upscope $end
$scope module Mux_Jump $end
$var wire 32 g data0_i [31:0] $end
$var wire 1 , select_i $end
$var wire 32 h data1_i [31:0] $end
$var reg 32 i data_o [31:0] $end
$upscope $end
$scope module Mux_PC_Source $end
$var wire 32 j data0_i [31:0] $end
$var wire 32 k data1_i [31:0] $end
$var wire 1 l select_i $end
$var reg 32 m data_o [31:0] $end
$upscope $end
$scope module Mux_Write_Reg $end
$var wire 5 n data0_i [4:0] $end
$var wire 5 o data1_i [4:0] $end
$var wire 1 5 select_i $end
$var reg 5 p data_o [4:0] $end
$upscope $end
$scope module Mux_isJal $end
$var wire 5 q data0_i [4:0] $end
$var wire 5 r data1_i [4:0] $end
$var wire 1 4 select_i $end
$var reg 5 s data_o [4:0] $end
$upscope $end
$scope module PC $end
$var wire 1 ! clk_i $end
$var wire 32 t pc_in_i [31:0] $end
$var wire 1 " rst_i $end
$var reg 32 u pc_out_o [31:0] $end
$upscope $end
$scope module RF $end
$var wire 5 v RDaddr_i [4:0] $end
$var wire 32 w RDdata_i [31:0] $end
$var wire 5 x RSaddr_i [4:0] $end
$var wire 32 y RSdata_o [31:0] $end
$var wire 5 z RTaddr_i [4:0] $end
$var wire 32 { RTdata_o [31:0] $end
$var wire 1 4 RegJal_o $end
$var wire 1 3 RegWrite_i $end
$var wire 1 ! clk_i $end
$var wire 32 | pc_Addro [31:0] $end
$var wire 1 " rst_i $end
$upscope $end
$scope module SE $end
$var wire 16 } data_i [15:0] $end
$var reg 32 ~ data_o [31:0] $end
$upscope $end
$scope module Shifter $end
$var wire 32 !" data_i [31:0] $end
$var reg 32 "" data_o [31:0] $end
$upscope $end
$upscope $end
$upscope $end
$enddefinitions $end
#0
$dumpvars
bx ""
bx !"
bx ~
bx }
bx |
bx {
bx z
bx y
bx x
bx w
bx v
bx u
bx t
bx s
b11111 r
bx q
bx p
bx o
bx n
bx m
xl
bx k
bx j
bx i
bx h
bx00 g
bx f
bx e
bx d
bx c
bx b
bx a
bx `
bx _
bx ^
bx ]
bx \
bx [
b100000 Z
bx Y
bx X
bx W
bx V
bx U
b10000000 T
bx S
bx R
bx Q
bx P
bx O
bx N
bx M
bx L
b100 K
bx J
bx I
bx H
bx G
bx F
bx E
bx D
bx C
bx B
xA
bx @
x?
bx >
bx =
x<
x;
x:
bx 9
x8
bx 7
bx 6
x5
x4
x3
bx 2
bx 1
bx 0
bx /
bx .
bx -
x,
bx00 +
bx *
bx )
bx (
bx '
bx &
bx %
bx $
x#
0"
0!
$end
#25000
b0 =
b0 `
b0 w
b0 >
b0 ]
b0 ^
b10 B
b10 E
b10 F
0#
b0 %
b0 J
b0 Q
b0 [
b100 )
b100 c
b100 t
b100 '
b100 b
b100 m
b10000000010001000 $
b10000000010001000 O
b10000000010001000 k
b10000000010000100 .
b10000000010000100 P
b10000000010000100 ""
0l
b0 2
b0 H
b0 f
b1000 0
b1000 s
b1000 v
b100000000100001 /
b100000000100001 d
b100000000100001 ~
b100000000100001 !"
b10 @
b10 D
b10 W
15
04
0<
0;
0:
0,
08
0?
13
0A
b1000 1
b1000 p
b1000 q
b10000000010000100 +
b10000000010000100 &
b10000000010000100 a
b10000000010000100 i
b0 G
b100000000100001 }
b100001 C
b100001 U
b0 V
b0 6
b0 R
b0 e
b0 {
b0 z
b0 7
b0 I
b0 h
b0 y
b0 x
b1000 o
b0 n
b10000000010000100 g
b100000000100001 -
b100000000100001 X
b100 *
b100 L
b100 N
b100 _
b100 j
b100 |
b0 (
b0 M
b0 Y
b0 u
1!
#50000
0!
1"
#75000
b1010 =
b1010 `
b1010 w
b1010 >
b1010 ]
b1010 ^
1#
b1010 %
b1010 J
b1010 Q
b1010 [
b101000 .
b101000 P
b101000 ""
b1010 2
b1010 H
b1010 f
b1001 0
b1001 s
b1001 v
b1001000000000000101000 &
b1001000000000000101000 a
b1001000000000000101000 i
b1010 /
b1010 d
b1010 ~
b1010 !"
b11 @
b11 D
b11 W
05
1A
b1001 1
b1001 p
b1001 q
b1001000000000000101000 g
b1001000000000000101000 +
b1000 )
b1000 c
b1000 t
b1010 }
b1010 C
b1010 U
b1000 V
b1001 z
b0 o
b1001 n
b1000 '
b1000 b
b1000 m
b100000000010010000000000001010 -
b100000000010010000000000001010 X
b110000 $
b110000 O
b110000 k
b1000 *
b1000 L
b1000 N
b1000 _
b1000 j
b1000 |
b100 (
b100 M
b100 Y
b100 u
1!
#100000
0!
#125000
b1101 =
b1101 `
b1101 w
b1101 >
b1101 ]
b1101 ^
b1101 %
b1101 J
b1101 Q
b1101 [
b1101 2
b1101 H
b1101 f
b110100 .
b110100 P
b110100 ""
b1010 0
b1010 s
b1010 v
b1010000000000000110100 &
b1010000000000000110100 a
b1010000000000000110100 i
b1101 /
b1101 d
b1101 ~
b1101 !"
b1010 1
b1010 p
b1010 q
b1010000000000000110100 g
b1010000000000000110100 +
b1100 )
b1100 c
b1100 t
b1101 }
b1101 C
b1101 U
b1010 z
b1010 n
b1100 '
b1100 b
b1100 m
b100000000010100000000000001101 -
b100000000010100000000000001101 X
b1000000 $
b1000000 O
b1000000 k
b1100 *
b1100 L
b1100 N
b1100 _
b1100 j
b1100 |
b1000 (
b1000 M
b1000 Y
b1000 u
b0 6
b0 R
b0 e
b0 {
1!
#150000
0!
#175000
b1100100 =
b1100100 `
b1100100 w
b1100100 >
b1100100 ]
b1100100 ^
b1100 B
b1100 E
b1100 F
b1100100 %
b1100100 J
b1100100 Q
b1100100 [
b10110000001100000 .
b10110000001100000 P
b10110000001100000 ""
b1010 2
b1010 H
b1010 f
b1011 0
b1011 s
b1011 v
b101100000011000 /
b101100000011000 d
b101100000011000 ~
b101100000011000 !"
b10 @
b10 D
b10 W
15
0A
b100101001010110000001100000 &
b100101001010110000001100000 a
b100101001010110000001100000 i
b1011 1
b1011 p
b1011 q
b100101001010110000001100000 g
b100101001010110000001100000 +
b10000 )
b10000 c
b10000 t
b101100000011000 }
b11000 C
b11000 U
b0 V
b1001 z
b1010 7
b1010 I
b1010 h
b1010 y
b1001 x
b1011 o
b1001 n
b10000 '
b10000 b
b10000 m
b1001010010101100000011000 -
b1001010010101100000011000 X
b10110000001110000 $
b10110000001110000 O
b10110000001110000 k
b10000 *
b10000 L
b10000 N
b10000 _
b10000 j
b10000 |
b1100 (
b1100 M
b1100 Y
b1100 u
b1010 6
b1010 R
b1010 e
b1010 {
1!
#200000
0!
#225000
bx =
bx `
bx w
bx >
bx ]
bx ^
x#
bx %
bx J
bx Q
bx [
b1011100 .
b1011100 P
b1011100 ""
b0 0
b0 s
b0 v
b10111 /
b10111 d
b10111 ~
b10111 !"
b0x @
b0x D
b0x W
x5
1<
03
xA
b0x0xxx 2
b0x0xxx H
b0x0xxx f
b1011100 &
b1011100 a
b1011100 i
b0 1
b0 p
b0 q
b1011100 g
b1011100 +
b1011100 )
b1011100 c
b1011100 t
b10111 }
b10111 C
b10111 U
b10 V
b0 6
b0 R
b0 e
b0 {
b0 z
b0 7
b0 I
b0 h
b0 y
b0 x
b0 o
b0 n
b10100 '
b10100 b
b10100 m
b1000000000000000000000010111 -
b1000000000000000000000010111 X
b1110000 $
b1110000 O
b1110000 k
b10100 *
b10100 L
b10100 N
b10100 _
b10100 j
b10100 |
b10000 (
b10000 M
b10000 Y
b10000 u
1!
#250000
0!
#275000
b11 =
b11 `
b11 w
b11 >
b11 ]
b11 ^
1#
b11 %
b11 J
b11 Q
b11 [
b110 B
b110 E
b110 F
b10100000010001100 .
b10100000010001100 P
b10100000010001100 ""
b1100000 )
b1100000 c
b1100000 t
b1010 0
b1010 s
b1010 v
b101000000100011 /
b101000000100011 d
b101000000100011 ~
b101000000100011 !"
b10 @
b10 D
b10 W
15
0<
13
0A
b1010 2
b1010 H
b1010 f
b101001001010100000010001100 &
b101001001010100000010001100 a
b101001001010100000010001100 i
b1010 1
b1010 p
b1010 q
b101001001010100000010001100 g
b101001001010100000010001100 +
b101000000100011 }
b100011 C
b100011 U
b0 V
b1010 6
b1010 R
b1010 e
b1010 {
b1001 z
b1101 7
b1101 I
b1101 h
b1101 y
b1010 x
b1010 o
b1001 n
b1100000 '
b1100000 b
b1100000 m
b1010010010101000000100011 -
b1010010010101000000100011 X
b10100000011101100 $
b10100000011101100 O
b10100000011101100 k
b1100000 *
b1100000 L
b1100000 N
b1100000 _
b1100000 j
b1100000 |
b1011100 (
b1011100 M
b1011100 Y
b1011100 u
1!
#300000
0!
#325000
b1100111 =
b1100111 `
b1100111 w
b1100111 >
b1100111 ]
b1100111 ^
b10 B
b10 E
b10 F
b1100111 %
b1100111 J
b1100111 Q
b1100111 [
b11000000010000100 .
b11000000010000100 P
b11000000010000100 ""
b1100 0
b1100 s
b1100 v
b110000000100001 /
b110000000100001 d
b110000000100001 ~
b110000000100001 !"
b11 2
b11 H
b11 f
b101101010011000000010000100 &
b101101010011000000010000100 a
b101101010011000000010000100 i
b1100 1
b1100 p
b1100 q
b101101010011000000010000100 g
b101101010011000000010000100 +
b1100100 )
b1100100 c
b1100100 t
b110000000100001 }
b100001 C
b100001 U
b11 6
b11 R
b11 e
b11 {
b1010 z
b1011 x
b1100 o
b1010 n
b1100100 '
b1100100 b
b1100100 m
b1011010100110000000100001 -
b1011010100110000000100001 X
b11000000011101000 $
b11000000011101000 O
b11000000011101000 k
b1100100 *
b1100100 L
b1100100 N
b1100100 _
b1100100 j
b1100100 |
b1100000 (
b1100000 M
b1100000 Y
b1100000 u
b1100100 7
b1100100 I
b1100100 h
b1100100 y
1!
#350000
0!
#375000
0#
b0 =
b0 `
b0 w
b0 >
b0 ]
b0 ^
b1000 B
b1000 E
b1000 F
b0 %
b0 J
b0 Q
b0 [
b11111111111111111111111111111000 .
b11111111111111111111111111111000 P
b11111111111111111111111111111000 ""
0l
bx1x1x 0
bx1x1x s
bx1x1x v
b11111111111111111111111111111110 /
b11111111111111111111111111111110 d
b11111111111111111111111111111110 ~
b11111111111111111111111111111110 !"
b1010 @
b1010 D
b1010 W
x5
1?
03
b100101010111111111111111000 &
b100101010111111111111111000 a
b100101010111111111111111000 i
bx1x1x 1
bx1x1x p
bx1x1x q
b100101010111111111111111000 g
b100101010111111111111111000 +
b1101000 )
b1101000 c
b1101000 t
b11111 G
b1111111111111110 }
b111110 C
b111110 U
b100 V
b1010 7
b1010 I
b1010 h
b1010 y
b1001 x
b11111 o
b1101000 '
b1101000 b
b1101000 m
b10001001010101111111111111110 -
b10001001010101111111111111110 X
b1100000 $
b1100000 O
b1100000 k
b1101000 *
b1101000 L
b1101000 N
b1101000 _
b1101000 j
b1101000 |
b1100100 (
b1100100 M
b1100100 Y
b1100100 u
1!
#400000
0!
#425000
b0x =
b0x `
b0x w
b0x >
b0x ]
b0x ^
x#
b0x %
b0x J
b0x Q
b0x [
b10100 .
b10100 P
b10100 ""
b0 0
b0 s
b0 v
b101 /
b101 d
b101 ~
b101 !"
b0x @
b0x D
b0x W
1<
0?
xA
b0x0x 2
b0x0x H
b0x0x f
b10100 &
b10100 a
b10100 i
b0 1
b0 p
b0 q
b10100 g
b10100 +
b10100 )
b10100 c
b10100 t
b0 G
b101 }
b101 C
b101 U
b10 V
b0 6
b0 R
b0 e
b0 {
b0 z
b0 7
b0 I
b0 h
b0 y
b0 x
b0 o
b0 n
b1101100 '
b1101100 b
b1101100 m
b1000000000000000000000000101 -
b1000000000000000000000000101 X
b10000000 $
b10000000 O
b10000000 k
b1101100 *
b1101100 L
b1101100 N
b1101100 _
b1101100 j
b1101100 |
b1101000 (
b1101000 M
b1101000 Y
b1101000 u
1!
#450000
0!
#475000
b1010 =
b1010 `
b1010 w
b1010 >
b1010 ]
b1010 ^
1#
b1010 %
b1010 J
b1010 Q
b1010 [
b10 B
b10 E
b10 F
b101000 .
b101000 P
b101000 ""
b11000 )
b11000 c
b11000 t
b1010 2
b1010 H
b1010 f
b1000 0
b1000 s
b1000 v
b1000000000000000101000 &
b1000000000000000101000 a
b1000000000000000101000 i
b1010 /
b1010 d
b1010 ~
b1010 !"
b0 @
b0 D
b0 W
05
0<
13
1A
b1000 1
b1000 p
b1000 q
b1000000000000000101000 g
b1000000000000000101000 +
b1010 }
b1010 C
b1010 U
b1111 V
b1000 z
b1000 n
b11000 '
b11000 b
b11000 m
b111100000010000000000000001010 -
b111100000010000000000000001010 X
b1000000 $
b1000000 O
b1000000 k
b11000 *
b11000 L
b11000 N
b11000 _
b11000 j
b11000 |
b10100 (
b10100 M
b10100 Y
b10100 u
1!
#500000
0!
#525000
b100 =
b100 `
b100 w
b100 >
b100 ]
b100 ^
b100 %
b100 J
b100 Q
b100 [
b100 2
b100 H
b100 f
b10000 .
b10000 P
b10000 ""
b1001 0
b1001 s
b1001 v
b1001000000000000010000 &
b1001000000000000010000 a
b1001000000000000010000 i
b100 /
b100 d
b100 ~
b100 !"
b1001 1
b1001 p
b1001 q
b1001000000000000010000 g
b1001000000000000010000 +
b11100 )
b11100 c
b11100 t
b100 }
b100 C
b100 U
b1001 z
b1001 n
b11100 '
b11100 b
b11100 m
b111100000010010000000000000100 -
b111100000010010000000000000100 X
b101100 $
b101100 O
b101100 k
b11100 *
b11100 L
b11100 N
b11100 _
b11100 j
b11100 |
b11000 (
b11000 M
b11000 Y
b11000 u
b1010 6
b1010 R
b1010 e
b1010 {
1!
#550000
0!
#575000
b101000 =
b101000 `
b101000 w
b101000 >
b101000 ]
b101000 ^
b1100 B
b1100 E
b1100 F
b101000 %
b101000 J
b101000 Q
b101000 [
b1100 0
b1100 s
b1100 v
b11000000001100000 .
b11000000001100000 P
b11000000001100000 ""
b1100 1
b1100 p
b1100 q
b110000000011000 /
b110000000011000 d
b110000000011000 ~
b110000000011000 !"
b10 @
b10 D
b10 W
15
0A
b100001001011000000001100000 &
b100001001011000000001100000 a
b100001001011000000001100000 i
b100001001011000000001100000 g
b100001001011000000001100000 +
b100000 )
b100000 c
b100000 t
b110000000011000 }
b11000 C
b11000 U
b0 V
b1010 7
b1010 I
b1010 h
b1010 y
b1000 x
b1100 o
b100000 '
b100000 b
b100000 m
b1000010010110000000011000 -
b1000010010110000000011000 X
b11000000010000000 $
b11000000010000000 O
b11000000010000000 k
b100000 *
b100000 L
b100000 N
b100000 _
b100000 j
b100000 |
b11100 (
b11100 M
b11100 Y
b11100 u
b100 6
b100 R
b100 e
b100 {
1!
#600000
0!
#625000
b1000 =
b1000 `
b1000 w
b1000 >
b1000 ]
b1000 ^
b10 B
b10 E
b10 F
1#
b1000 %
b1000 J
b1000 Q
b1000 [
b100000 .
b100000 P
b100000 ""
b1110 0
b1110 s
b1110 v
b1000 /
b1000 d
b1000 ~
b1000 !"
b11 @
b11 D
b11 W
05
1A
b1000 2
b1000 H
b1000 f
b1110000000000000100000 &
b1110000000000000100000 a
b1110000000000000100000 i
b1110 1
b1110 p
b1110 q
b1110000000000000100000 g
b1110000000000000100000 +
b100100 )
b100100 c
b100100 t
b1000 }
b1000 C
b1000 U
b1000 V
b0 6
b0 R
b0 e
b0 {
b1110 z
b0 7
b0 I
b0 h
b0 y
b0 x
b0 o
b1110 n
b100100 '
b100100 b
b100100 m
b100000000011100000000000001000 -
b100000000011100000000000001000 X
b1000100 $
b1000100 O
b1000100 k
b100100 *
b100100 L
b100100 N
b100100 _
b100100 j
b100100 |
b100000 (
b100000 M
b100000 Y
b100000 u
1!
#650000
0!
#675000
b100000 =
b100000 `
b100000 w
b100000 >
b100000 ]
b100000 ^
b110 B
b110 E
b110 F
b100000 %
b100000 J
b100000 Q
b100000 [
b1000 0
b1000 s
b1000 v
b10000000010001100 .
b10000000010001100 P
b10000000010001100 ""
b1000 1
b1000 p
b1000 q
b100000000100011 /
b100000000100011 d
b100000000100011 ~
b100000000100011 !"
b10 @
b10 D
b10 W
15
0A
b110001110010000000010001100 &
b110001110010000000010001100 a
b110001110010000000010001100 i
b110001110010000000010001100 g
b110001110010000000010001100 +
b101000 )
b101000 c
b101000 t
b100000000100011 }
b100011 C
b100011 U
b0 V
b101000 7
b101000 I
b101000 h
b101000 y
b1100 x
b1000 o
b101000 '
b101000 b
b101000 m
b1100011100100000000100011 -
b1100011100100000000100011 X
b10000000010110100 $
b10000000010110100 O
b10000000010110100 k
b101000 *
b101000 L
b101000 N
b101000 _
b101000 j
b101000 |
b100100 (
b100100 M
b100100 Y
b100100 u
b1000 6
b1000 R
b1000 e
b1000 {
1!
#700000
0!
#725000
b0 =
b0 `
b0 w
b0 >
b0 ]
b0 ^
0#
b10 B
b10 E
b10 F
b0 %
b0 J
b0 Q
b0 [
b0 .
b0 P
b0 ""
b1001 0
b1001 s
b1001 v
b0 /
b0 d
b0 ~
b0 !"
b0 @
b0 D
b0 W
05
1A
b0 2
b0 H
b0 f
b1001000000000000000000 &
b1001000000000000000000 a
b1001000000000000000000 i
b1001 1
b1001 p
b1001 q
b1001000000000000000000 g
b1001000000000000000000 +
b101100 )
b101100 c
b101100 t
b0 }
b0 C
b0 U
b1111 V
b100 6
b100 R
b100 e
b100 {
b1001 z
b0 7
b0 I
b0 h
b0 y
b0 x
b0 o
b1001 n
b101100 '
b101100 b
b101100 m
b111100000010010000000000000000 -
b111100000010010000000000000000 X
b101100 $
b101100 O
b101100 k
b101100 *
b101100 L
b101100 N
b101100 _
b101100 j
b101100 |
b101000 (
b101000 M
b101000 Y
b101000 u
1!
#750000
0!
#775000
1#
b100100 %
b100100 J
b100100 Q
b100100 [
b11 =
b11 `
b11 w
b100 2
b100 H
b100 f
b10000 .
b10000 P
b10000 ""
b11 9
b11 S
b11 \
b11 >
b11 ]
b11 ^
b1010 0
b1010 s
b1010 v
b100 /
b100 d
b100 ~
b100 !"
1;
18
b100001010000000000000010000 &
b100001010000000000000010000 a
b100001010000000000000010000 i
b1010 1
b1010 p
b1010 q
b100001010000000000000010000 g
b100001010000000000000010000 +
b110000 )
b110000 c
b110000 t
b100 }
b100 C
b100 U
b100011 V
b1010 z
b100000 7
b100000 I
b100000 h
b100000 y
b1000 x
b1010 n
b110000 '
b110000 b
b110000 m
b10001101000010100000000000000100 -
b10001101000010100000000000000100 X
b1000000 $
b1000000 O
b1000000 k
b110000 *
b110000 L
b110000 N
b110000 _
b110000 j
b110000 |
b101100 (
b101100 M
b101100 Y
b101100 u
b11 6
b11 R
b11 e
b11 {
1!
#800000
0!
#825000
b1 =
b1 `
b1 w
b1 >
b1 ]
b1 ^
b1 9
b1 S
b1 \
b100000 %
b100000 J
b100000 Q
b100000 [
b0 2
b0 H
b0 f
b0 .
b0 P
b0 ""
b1011 0
b1011 s
b1011 v
b100001011000000000000000000 &
b100001011000000000000000000 a
b100001011000000000000000000 i
b0 /
b0 d
b0 ~
b0 !"
b1011 1
b1011 p
b1011 q
b100001011000000000000000000 g
b100001011000000000000000000 +
b110100 )
b110100 c
b110100 t
b0 }
b0 C
b0 U
b1100100 6
b1100100 R
b1100100 e
b1100100 {
b1011 z
b1011 n
b110100 '
b110100 b
b110100 m
b10001101000010110000000000000000 -
b10001101000010110000000000000000 X
b110100 $
b110100 O
b110100 k
b110100 *
b110100 L
b110100 N
b110100 _
b110100 j
b110100 |
b110000 (
b110000 M
b110000 Y
b110000 u
1!
#850000
0!
#875000
0#
b100 B
b100 E
b100 F
b0 %
b0 J
b0 Q
b0 [
b0x0xx 0
b0x0xx s
b0x0xx v
b0 =
b0 `
b0 w
b1100 .
b1100 P
b1100 ""
b0x0xx 1
b0x0xx p
b0x0xx q
b0 >
b0 ]
b0 ^
0l
b1 2
b1 H
b1 f
b11 /
b11 d
b11 ~
b11 !"
b1000 @
b1000 D
b1000 W
x5
0;
08
1?
03
0A
b101001011000000000000001100 &
b101001011000000000000001100 a
b101001011000000000000001100 i
b101001011000000000000001100 g
b101001011000000000000001100 +
b111000 )
b111000 c
b111000 t
b11 }
b11 C
b11 U
b110 V
b11 7
b11 I
b11 h
b11 y
b1010 x
b111000 '
b111000 b
b111000 m
b11001010010110000000000000011 -
b11001010010110000000000000011 X
b1000100 $
b1000100 O
b1000100 k
b111000 *
b111000 L
b111000 N
b111000 _
b111000 j
b111000 |
b110100 (
b110100 M
b110100 Y
b110100 u
b1 6
b1 R
b1 e
b1 {
1!
#900000
0!
#925000
b100000 =
b100000 `
b100000 w
b100000 >
b100000 ]
b100000 ^
1#
b100000 %
b100000 J
b100000 Q
b100000 [
b10 B
b10 E
b10 F
b0 .
b0 P
b0 ""
b0x0x0 0
b0x0x0 s
b0x0x0 v
b0 /
b0 d
b0 ~
b0 !"
b1 @
b1 D
b1 W
1:
0?
1A
b0 2
b0 H
b0 f
b100001010000000000000000000 &
b100001010000000000000000000 a
b100001010000000000000000000 i
b0x0x0 1
b0x0x0 p
b0x0x0 q
b100001010000000000000000000 g
b100001010000000000000000000 +
b111100 )
b111100 c
b111100 t
b0 }
b0 C
b0 U
b101011 V
b11 6
b11 R
b11 e
b11 {
b1010 z
b100000 7
b100000 I
b100000 h
b100000 y
b1000 x
b1010 n
b111100 '
b111100 b
b111100 m
b10101101000010100000000000000000 -
b10101101000010100000000000000000 X
b111100 $
b111100 O
b111100 k
b111100 *
b111100 L
b111100 N
b111100 _
b111100 j
b111100 |
b111000 (
b111000 M
b111000 Y
b111000 u
1!
#950000
0!
#975000
b100100 =
b100100 `
b100100 w
b100100 >
b100100 ]
b100100 ^
b100100 %
b100100 J
b100100 Q
b100100 [
b100 2
b100 H
b100 f
b10000 .
b10000 P
b10000 ""
b0x0xx 0
b0x0xx s
b0x0xx v
b100001011000000000000010000 &
b100001011000000000000010000 a
b100001011000000000000010000 i
b100 /
b100 d
b100 ~
b100 !"
b0x0xx 1
b0x0xx p
b0x0xx q
b100001011000000000000010000 g
b100001011000000000000010000 +
b1000000 )
b1000000 c
b1000000 t
b100 }
b100 C
b100 U
b1 6
b1 R
b1 e
b1 {
b1011 z
b1011 n
b1000000 '
b1000000 b
b1000000 m
b10101101000010110000000000000100 -
b10101101000010110000000000000100 X
b1010000 $
b1010000 O
b1010000 k
b1000000 *
b1000000 L
b1000000 N
b1000000 _
b1000000 j
b1000000 |
b111100 (
b111100 M
b111100 Y
b111100 u
1!
#1000000
0!
#1025000
b1 =
b1 `
b1 w
b1 >
b1 ]
b1 ^
b1 %
b1 J
b1 Q
b1 [
b1 2
b1 H
b1 f
b100 .
b100 P
b100 ""
b1001 0
b1001 s
b1001 v
b1 /
b1 d
b1 ~
b1 !"
b0 @
b0 D
b0 W
05
0:
13
b1001000000000000000100 &
b1001000000000000000100 a
b1001000000000000000100 i
b1001 1
b1001 p
b1001 q
b1001000000000000000100 g
b1001000000000000000100 +
b1000100 )
b1000100 c
b1000100 t
b1 }
b1 C
b1 U
b1111 V
b0 6
b0 R
b0 e
b0 {
b1001 z
b0 7
b0 I
b0 h
b0 y
b0 x
b1001 n
b1000100 '
b1000100 b
b1000100 m
b111100000010010000000000000001 -
b111100000010010000000000000001 X
b1001000 $
b1001000 O
b1001000 k
b1000100 *
b1000100 L
b1000100 N
b1000100 _
b1000100 j
b1000100 |
b1000000 (
b1000000 M
b1000000 Y
b1000000 u
1!
#1050000
0!
#1075000
b100 =
b100 `
b100 w
b100 >
b100 ]
b100 ^
b100 %
b100 J
b100 Q
b100 [
b100 2
b100 H
b100 f
b10000 .
b10000 P
b10000 ""
b1101 0
b1101 s
b1101 v
b1101000000000000010000 &
b1101000000000000010000 a
b1101000000000000010000 i
b100 /
b100 d
b100 ~
b100 !"
b11 @
b11 D
b11 W
b1101 1
b1101 p
b1101 q
b1101000000000000010000 g
b1101000000000000010000 +
b1001000 )
b1001000 c
b1001000 t
b100 }
b100 C
b100 U
b1000 V
b1101 z
b1101 n
b1001000 '
b1001000 b
b1001000 m
b100000000011010000000000000100 -
b100000000011010000000000000100 X
b1011000 $
b1011000 O
b1011000 k
b1001000 *
b1001000 L
b1001000 N
b1001000 _
b1001000 j
b1001000 |
b1000100 (
b1000100 M
b1000100 Y
b1000100 u
b0 6
b0 R
b0 e
b0 {
1!
#1100000
0!
#1125000
b11100 =
b11100 `
b11100 w
b11100 >
b11100 ]
b11100 ^
b110 B
b110 E
b110 F
b11100 %
b11100 J
b11100 Q
b11100 [
b1000 0
b1000 s
b1000 v
b10000000010001100 .
b10000000010001100 P
b10000000010001100 ""
b1000 1
b1000 p
b1000 q
b100000000100011 /
b100000000100011 d
b100000000100011 ~
b100000000100011 !"
b10 @
b10 D
b10 W
15
0A
b100001101010000000010001100 &
b100001101010000000010001100 a
b100001101010000000010001100 i
b100001101010000000010001100 g
b100001101010000000010001100 +
b1001100 )
b1001100 c
b1001100 t
b100000000100011 }
b100011 C
b100011 U
b0 V
b100000 7
b100000 I
b100000 h
b100000 y
b1000 x
b1000 o
b1001100 '
b1001100 b
b1001100 m
b1000011010100000000100011 -
b1000011010100000000100011 X
b10000000011011000 $
b10000000011011000 O
b10000000011011000 k
b1001100 *
b1001100 L
b1001100 N
b1001100 _
b1001100 j
b1001100 |
b1001000 (
b1001000 M
b1001000 Y
b1001000 u
b100 6
b100 R
b100 e
b100 {
1!
#1150000
0!
